<?xml version="1.0" encoding="utf-8"?>
<!DOCTYPE eagle SYSTEM "eagle.dtd">
<eagle version="6.6.0">
<drawing>
<settings>
<setting alwaysvectorfont="no"/>
<setting verticaltext="up"/>
</settings>
<grid distance="0.05" unitdist="inch" unit="inch" style="lines" multiple="1" display="no" altdistance="0.025" altunitdist="inch" altunit="inch"/>
<layers>
<layer number="1" name="Top" color="4" fill="1" visible="yes" active="yes"/>
<layer number="2" name="Route2" color="1" fill="3" visible="no" active="no"/>
<layer number="3" name="Route3" color="4" fill="3" visible="no" active="no"/>
<layer number="14" name="Route14" color="1" fill="6" visible="no" active="no"/>
<layer number="15" name="Route15" color="4" fill="6" visible="no" active="no"/>
<layer number="16" name="Bottom" color="1" fill="1" visible="yes" active="yes"/>
<layer number="17" name="Pads" color="2" fill="1" visible="yes" active="yes"/>
<layer number="18" name="Vias" color="2" fill="1" visible="yes" active="yes"/>
<layer number="19" name="Unrouted" color="6" fill="1" visible="yes" active="yes"/>
<layer number="20" name="Dimension" color="15" fill="1" visible="yes" active="yes"/>
<layer number="21" name="tPlace" color="7" fill="1" visible="yes" active="yes"/>
<layer number="22" name="bPlace" color="7" fill="1" visible="yes" active="yes"/>
<layer number="23" name="tOrigins" color="15" fill="1" visible="yes" active="yes"/>
<layer number="24" name="bOrigins" color="15" fill="1" visible="yes" active="yes"/>
<layer number="25" name="tNames" color="7" fill="1" visible="yes" active="yes"/>
<layer number="26" name="bNames" color="7" fill="1" visible="yes" active="yes"/>
<layer number="27" name="tValues" color="7" fill="1" visible="yes" active="yes"/>
<layer number="28" name="bValues" color="7" fill="1" visible="yes" active="yes"/>
<layer number="29" name="tStop" color="7" fill="3" visible="no" active="yes"/>
<layer number="30" name="bStop" color="7" fill="6" visible="no" active="yes"/>
<layer number="31" name="tCream" color="7" fill="4" visible="no" active="yes"/>
<layer number="32" name="bCream" color="7" fill="5" visible="no" active="yes"/>
<layer number="33" name="tFinish" color="6" fill="3" visible="no" active="yes"/>
<layer number="34" name="bFinish" color="6" fill="6" visible="no" active="yes"/>
<layer number="35" name="tGlue" color="7" fill="4" visible="no" active="yes"/>
<layer number="36" name="bGlue" color="7" fill="5" visible="no" active="yes"/>
<layer number="37" name="tTest" color="7" fill="1" visible="no" active="yes"/>
<layer number="38" name="bTest" color="7" fill="1" visible="no" active="yes"/>
<layer number="39" name="tKeepout" color="4" fill="11" visible="yes" active="yes"/>
<layer number="40" name="bKeepout" color="1" fill="11" visible="yes" active="yes"/>
<layer number="41" name="tRestrict" color="4" fill="10" visible="yes" active="yes"/>
<layer number="42" name="bRestrict" color="1" fill="10" visible="yes" active="yes"/>
<layer number="43" name="vRestrict" color="2" fill="10" visible="yes" active="yes"/>
<layer number="44" name="Drills" color="7" fill="1" visible="no" active="yes"/>
<layer number="45" name="Holes" color="7" fill="1" visible="no" active="yes"/>
<layer number="46" name="Milling" color="3" fill="1" visible="no" active="yes"/>
<layer number="47" name="Measures" color="7" fill="1" visible="yes" active="yes"/>
<layer number="48" name="Document" color="7" fill="1" visible="yes" active="yes"/>
<layer number="49" name="Reference" color="7" fill="1" visible="yes" active="yes"/>
<layer number="50" name="dxf" color="7" fill="1" visible="no" active="no"/>
<layer number="51" name="tDocu" color="7" fill="1" visible="yes" active="yes"/>
<layer number="52" name="bDocu" color="7" fill="1" visible="yes" active="yes"/>
<layer number="91" name="Nets" color="2" fill="1" visible="no" active="no"/>
<layer number="92" name="Busses" color="1" fill="1" visible="no" active="no"/>
<layer number="93" name="Pins" color="2" fill="1" visible="no" active="no"/>
<layer number="94" name="Symbols" color="4" fill="1" visible="no" active="no"/>
<layer number="95" name="Names" color="7" fill="1" visible="no" active="no"/>
<layer number="96" name="Values" color="7" fill="1" visible="no" active="no"/>
<layer number="97" name="Info" color="7" fill="1" visible="no" active="no"/>
<layer number="98" name="Guide" color="6" fill="1" visible="no" active="no"/>
<layer number="100" name="Muster" color="7" fill="1" visible="yes" active="yes"/>
<layer number="250" name="Descript" color="3" fill="1" visible="yes" active="yes"/>
<layer number="251" name="SMDround" color="4" fill="9" visible="yes" active="yes"/>
</layers>
<board>
<plain>
<wire x1="0" y1="0" x2="25.38" y2="0" width="0" layer="20"/>
<wire x1="25.38" y1="0" x2="25.38" y2="30.15" width="0" layer="20"/>
<wire x1="25.38" y1="30.15" x2="0" y2="30.15" width="0" layer="20"/>
<wire x1="0" y1="30.15" x2="0" y2="0" width="0" layer="20"/>
<dimension x1="25.38" y1="30.15" x2="0" y2="30.15" x3="12.69" y3="39.37" textsize="1.778" layer="47"/>
<dimension x1="25.38" y1="0" x2="25.38" y2="30.15" x3="39.37" y3="15.075" textsize="1.778" layer="47"/>
</plain>
<libraries>
<library name="con-harting-ml">
<description>&lt;b&gt;Harting  &amp; 3M Connectors&lt;/b&gt;&lt;p&gt;
Low profile connectors, straight&lt;p&gt;
&lt;author&gt;Created by librarian@cadsoft.de&lt;/author&gt;</description>
<packages>
<package name="ML10L">
<description>&lt;b&gt;HARTING&lt;/b&gt;</description>
<wire x1="-6.35" y1="10.16" x2="-3.81" y2="10.16" width="0.254" layer="21"/>
<wire x1="-3.81" y1="10.16" x2="-5.08" y2="7.62" width="0.254" layer="21"/>
<wire x1="-5.08" y1="7.62" x2="-6.35" y2="10.16" width="0.254" layer="21"/>
<wire x1="2.794" y1="9.906" x2="2.794" y2="10.922" width="0.1524" layer="21"/>
<wire x1="2.794" y1="9.906" x2="4.826" y2="9.906" width="0.1524" layer="21"/>
<wire x1="4.826" y1="10.922" x2="4.826" y2="9.906" width="0.1524" layer="21"/>
<wire x1="2.159" y1="3.683" x2="3.048" y2="3.683" width="0.1524" layer="21"/>
<wire x1="3.048" y1="5.969" x2="4.572" y2="5.969" width="0.1524" layer="21" curve="-180"/>
<wire x1="4.572" y1="5.969" x2="4.572" y2="4.445" width="0.1524" layer="21"/>
<wire x1="4.572" y1="3.683" x2="5.969" y2="3.683" width="0.1524" layer="21"/>
<wire x1="-2.159" y1="10.922" x2="-2.159" y2="4.445" width="0.1524" layer="21"/>
<wire x1="-2.159" y1="10.922" x2="2.159" y2="10.922" width="0.1524" layer="21"/>
<wire x1="2.159" y1="10.922" x2="2.159" y2="4.445" width="0.1524" layer="21"/>
<wire x1="2.159" y1="4.445" x2="-2.159" y2="4.445" width="0.1524" layer="21"/>
<wire x1="2.159" y1="3.429" x2="-2.159" y2="3.429" width="0.1524" layer="21"/>
<wire x1="-2.159" y1="4.445" x2="-2.159" y2="3.429" width="0.1524" layer="21"/>
<wire x1="2.159" y1="4.445" x2="2.159" y2="3.683" width="0.1524" layer="21"/>
<wire x1="2.159" y1="3.683" x2="2.159" y2="3.429" width="0.1524" layer="21"/>
<wire x1="2.159" y1="3.429" x2="2.159" y2="2.159" width="0.1524" layer="21"/>
<wire x1="3.048" y1="5.969" x2="3.048" y2="4.445" width="0.1524" layer="21"/>
<wire x1="3.048" y1="4.445" x2="3.048" y2="3.683" width="0.1524" layer="21"/>
<wire x1="3.048" y1="4.445" x2="4.572" y2="4.445" width="0.1524" layer="21"/>
<wire x1="4.572" y1="4.445" x2="4.572" y2="3.683" width="0.1524" layer="21"/>
<wire x1="5.969" y1="3.683" x2="5.969" y2="10.922" width="0.1524" layer="21"/>
<wire x1="5.969" y1="3.683" x2="5.969" y2="2.032" width="0.1524" layer="21"/>
<wire x1="-5.715" y1="2.032" x2="-4.445" y2="2.032" width="0.1524" layer="51"/>
<wire x1="-4.445" y1="2.032" x2="-3.175" y2="2.032" width="0.1524" layer="21"/>
<wire x1="-3.175" y1="2.032" x2="-1.905" y2="2.032" width="0.1524" layer="51"/>
<wire x1="-1.905" y1="2.032" x2="-0.635" y2="2.032" width="0.1524" layer="21"/>
<wire x1="-0.635" y1="2.032" x2="0.635" y2="2.032" width="0.1524" layer="51"/>
<wire x1="0.635" y1="2.032" x2="1.905" y2="2.032" width="0.1524" layer="21"/>
<wire x1="1.905" y1="2.032" x2="2.159" y2="2.032" width="0.1524" layer="51"/>
<wire x1="3.175" y1="2.032" x2="4.445" y2="2.032" width="0.1524" layer="21"/>
<wire x1="5.715" y1="2.032" x2="4.445" y2="2.032" width="0.1524" layer="51"/>
<wire x1="0" y1="10.033" x2="0" y2="10.287" width="0.508" layer="21"/>
<wire x1="6.731" y1="4.445" x2="9.525" y2="4.445" width="0.1524" layer="21"/>
<wire x1="9.525" y1="4.445" x2="9.525" y2="8.255" width="0.1524" layer="21"/>
<wire x1="6.731" y1="8.255" x2="9.525" y2="8.255" width="0.1524" layer="21"/>
<wire x1="6.731" y1="8.255" x2="6.731" y2="4.445" width="0.1524" layer="21"/>
<wire x1="2.159" y1="10.922" x2="10.16" y2="10.922" width="0.1524" layer="21"/>
<wire x1="10.16" y1="10.922" x2="10.16" y2="2.032" width="0.1524" layer="21"/>
<wire x1="10.16" y1="2.032" x2="9.017" y2="2.032" width="0.1524" layer="21"/>
<wire x1="-2.159" y1="10.922" x2="-10.16" y2="10.922" width="0.1524" layer="21"/>
<wire x1="-10.16" y1="2.032" x2="-10.16" y2="10.922" width="0.1524" layer="21"/>
<wire x1="-10.16" y1="2.032" x2="-9.017" y2="2.032" width="0.1524" layer="21"/>
<wire x1="5.969" y1="2.032" x2="5.715" y2="2.032" width="0.1524" layer="21"/>
<wire x1="2.159" y1="2.159" x2="2.159" y2="2.032" width="0.1524" layer="51"/>
<wire x1="2.159" y1="2.032" x2="3.175" y2="2.032" width="0.1524" layer="51"/>
<wire x1="8.001" y1="2.032" x2="8.001" y2="1.397" width="0.1524" layer="21"/>
<wire x1="9.017" y1="1.397" x2="8.001" y2="1.397" width="0.1524" layer="21"/>
<wire x1="9.017" y1="1.397" x2="9.017" y2="2.032" width="0.1524" layer="21"/>
<wire x1="8.001" y1="2.032" x2="5.969" y2="2.032" width="0.1524" layer="21"/>
<wire x1="9.017" y1="2.032" x2="8.001" y2="2.032" width="0.1524" layer="21"/>
<wire x1="-9.017" y1="2.032" x2="-9.017" y2="1.397" width="0.1524" layer="21"/>
<wire x1="-9.017" y1="2.032" x2="-8.001" y2="2.032" width="0.1524" layer="21"/>
<wire x1="-8.001" y1="1.397" x2="-9.017" y2="1.397" width="0.1524" layer="21"/>
<wire x1="-8.001" y1="1.397" x2="-8.001" y2="2.032" width="0.1524" layer="21"/>
<wire x1="-8.001" y1="2.032" x2="-5.715" y2="2.032" width="0.1524" layer="21"/>
<pad name="1" x="-5.08" y="-1.27" drill="0.9144" shape="octagon"/>
<pad name="2" x="-5.08" y="1.27" drill="0.9144" shape="octagon"/>
<pad name="3" x="-2.54" y="-1.27" drill="0.9144" shape="octagon"/>
<pad name="4" x="-2.54" y="1.27" drill="0.9144" shape="octagon"/>
<pad name="5" x="0" y="-1.27" drill="0.9144" shape="octagon"/>
<pad name="6" x="0" y="1.27" drill="0.9144" shape="octagon"/>
<pad name="7" x="2.54" y="-1.27" drill="0.9144" shape="octagon"/>
<pad name="8" x="2.54" y="1.27" drill="0.9144" shape="octagon"/>
<pad name="9" x="5.08" y="-1.27" drill="0.9144" shape="octagon"/>
<pad name="10" x="5.08" y="1.27" drill="0.9144" shape="octagon"/>
<text x="-7.1628" y="-1.6764" size="1.27" layer="21" ratio="10">1</text>
<text x="-7.1882" y="0.3556" size="1.27" layer="21" ratio="10">2</text>
<text x="-10.1854" y="11.43" size="1.778" layer="25" ratio="10">&gt;NAME</text>
<text x="-0.0254" y="11.43" size="1.778" layer="27" ratio="10">&gt;VALUE</text>
<text x="8.89" y="5.08" size="1.524" layer="21" ratio="10" rot="R90">10</text>
<rectangle x1="-0.254" y1="4.445" x2="0.254" y2="10.287" layer="21"/>
<rectangle x1="-6.223" y1="9.652" x2="-3.937" y2="10.16" layer="21"/>
<rectangle x1="-5.969" y1="9.144" x2="-4.191" y2="9.652" layer="21"/>
<rectangle x1="-5.715" y1="8.636" x2="-4.445" y2="9.144" layer="21"/>
<rectangle x1="-5.461" y1="8.128" x2="-4.699" y2="8.636" layer="21"/>
<rectangle x1="-5.207" y1="7.874" x2="-4.953" y2="8.128" layer="21"/>
<rectangle x1="-5.334" y1="-0.381" x2="-4.826" y2="0.381" layer="21"/>
<rectangle x1="-5.334" y1="0.381" x2="-4.826" y2="2.032" layer="51"/>
<rectangle x1="-5.334" y1="-1.524" x2="-4.826" y2="-0.381" layer="51"/>
<rectangle x1="-2.794" y1="0.381" x2="-2.286" y2="2.032" layer="51"/>
<rectangle x1="-2.794" y1="-0.381" x2="-2.286" y2="0.381" layer="21"/>
<rectangle x1="-2.794" y1="-1.524" x2="-2.286" y2="-0.381" layer="51"/>
<rectangle x1="-0.254" y1="0.381" x2="0.254" y2="2.032" layer="51"/>
<rectangle x1="-0.254" y1="-0.381" x2="0.254" y2="0.381" layer="21"/>
<rectangle x1="-0.254" y1="-1.524" x2="0.254" y2="-0.381" layer="51"/>
<rectangle x1="2.286" y1="0.381" x2="2.794" y2="2.032" layer="51"/>
<rectangle x1="2.286" y1="-0.381" x2="2.794" y2="0.381" layer="21"/>
<rectangle x1="2.286" y1="-1.524" x2="2.794" y2="-0.381" layer="51"/>
<rectangle x1="4.826" y1="0.381" x2="5.334" y2="2.032" layer="51"/>
<rectangle x1="4.826" y1="-0.381" x2="5.334" y2="0.381" layer="21"/>
<rectangle x1="4.826" y1="-1.524" x2="5.334" y2="-0.381" layer="51"/>
</package>
</packages>
</library>
<library name="con-molex">
<description>&lt;b&gt;Molex Connectors&lt;/b&gt;&lt;p&gt;
&lt;author&gt;Created by librarian@cadsoft.de&lt;/author&gt;</description>
<packages>
<package name="7395-04">
<description>&lt;b&gt;MOLEX 2.54mm KK RA CONNECTOR&lt;/b&gt;
&lt;br&gt;Fixed Orientation</description>
<wire x1="5.08" y1="-5.08" x2="5.08" y2="-1.905" width="0.254" layer="21"/>
<wire x1="5.08" y1="-1.905" x2="4.445" y2="-1.905" width="0.254" layer="21"/>
<wire x1="4.445" y1="-1.905" x2="4.445" y2="-2.54" width="0.254" layer="21"/>
<wire x1="4.445" y1="-2.54" x2="3.175" y2="-2.54" width="0.254" layer="21"/>
<wire x1="3.175" y1="-2.54" x2="3.175" y2="-1.905" width="0.254" layer="21"/>
<wire x1="3.175" y1="-1.905" x2="1.905" y2="-1.905" width="0.254" layer="21"/>
<wire x1="1.905" y1="-1.905" x2="1.905" y2="-2.54" width="0.254" layer="21"/>
<wire x1="1.905" y1="-2.54" x2="0.635" y2="-2.54" width="0.254" layer="21"/>
<wire x1="0.635" y1="-2.54" x2="0.635" y2="-1.905" width="0.254" layer="21"/>
<wire x1="0.635" y1="-1.905" x2="-0.635" y2="-1.905" width="0.254" layer="21"/>
<wire x1="-0.635" y1="-1.905" x2="-0.635" y2="-2.54" width="0.254" layer="21"/>
<wire x1="-0.635" y1="-2.54" x2="-1.905" y2="-2.54" width="0.254" layer="21"/>
<wire x1="-1.905" y1="-2.54" x2="-1.905" y2="-1.905" width="0.254" layer="21"/>
<wire x1="-1.905" y1="-1.905" x2="-3.175" y2="-1.905" width="0.254" layer="21"/>
<wire x1="-3.175" y1="-1.905" x2="-3.175" y2="-2.54" width="0.254" layer="21"/>
<wire x1="-3.175" y1="-2.54" x2="-4.445" y2="-2.54" width="0.254" layer="21"/>
<wire x1="-4.445" y1="-2.54" x2="-4.445" y2="-1.905" width="0.254" layer="21"/>
<wire x1="-4.445" y1="-1.905" x2="-5.08" y2="-1.905" width="0.254" layer="21"/>
<wire x1="-5.08" y1="-1.905" x2="-5.08" y2="-5.08" width="0.254" layer="21"/>
<wire x1="-5.08" y1="-5.08" x2="-4.191" y2="-5.08" width="0.254" layer="21"/>
<wire x1="-4.191" y1="-5.08" x2="3.81" y2="-5.08" width="0.254" layer="21"/>
<wire x1="3.81" y1="-5.08" x2="5.08" y2="-5.08" width="0.254" layer="21"/>
<wire x1="3.81" y1="-5.08" x2="3.81" y2="-13.081" width="0.254" layer="21"/>
<wire x1="3.81" y1="-13.081" x2="3.556" y2="-13.589" width="0.254" layer="21"/>
<wire x1="3.556" y1="-13.589" x2="-0.0508" y2="-13.589" width="0.254" layer="21"/>
<wire x1="-3.81" y1="-5.08" x2="-3.81" y2="-13.081" width="0.254" layer="21"/>
<wire x1="-3.81" y1="-13.081" x2="-3.556" y2="-13.589" width="0.254" layer="21"/>
<wire x1="-3.556" y1="-13.589" x2="0.0508" y2="-13.589" width="0.254" layer="21"/>
<wire x1="1.27" y1="-5.08" x2="0.889" y2="-5.08" width="0.254" layer="51"/>
<wire x1="-4.191" y1="-5.08" x2="-4.191" y2="-11.303" width="0.254" layer="21"/>
<wire x1="-4.191" y1="-11.303" x2="-3.8608" y2="-11.6586" width="0.254" layer="21"/>
<wire x1="4.191" y1="-5.08" x2="4.191" y2="-11.303" width="0.254" layer="21"/>
<wire x1="4.191" y1="-11.303" x2="3.8608" y2="-11.6586" width="0.254" layer="21"/>
<pad name="1" x="3.81" y="0" drill="1.016" shape="long" rot="R90"/>
<pad name="2" x="1.27" y="0" drill="1.016" shape="long" rot="R90"/>
<pad name="3" x="-1.27" y="0" drill="1.016" shape="long" rot="R90"/>
<pad name="4" x="-3.81" y="0" drill="1.016" shape="long" rot="R90"/>
<text x="5.1801" y="2.9479" size="1.016" layer="25" ratio="10" rot="R180">&gt;NAME</text>
<text x="3.3259" y="-3.4021" size="1.27" layer="21" ratio="14" rot="R270">1</text>
<text x="-4.2433" y="-3.2751" size="1.27" layer="21" ratio="14" rot="R270">4</text>
<text x="5.9421" y="-2.4399" size="0.8128" layer="27" ratio="10" rot="R270">&gt;VALUE</text>
<rectangle x1="3.556" y1="-0.254" x2="4.064" y2="0.254" layer="51"/>
<rectangle x1="1.016" y1="-0.254" x2="1.524" y2="0.254" layer="51"/>
<rectangle x1="-1.524" y1="-0.254" x2="-1.016" y2="0.254" layer="51"/>
<rectangle x1="-4.064" y1="-0.254" x2="-3.556" y2="0.254" layer="51"/>
<rectangle x1="3.556" y1="-2.5146" x2="4.064" y2="-0.2794" layer="51"/>
<rectangle x1="1.016" y1="-2.5146" x2="1.524" y2="-0.2794" layer="51"/>
<rectangle x1="-1.524" y1="-2.5146" x2="-1.016" y2="-0.2794" layer="51"/>
<rectangle x1="-4.064" y1="-2.5146" x2="-3.556" y2="-0.2794" layer="51"/>
</package>
</packages>
</library>
<library name="rcl">
<description>&lt;b&gt;Resistors, Capacitors, Inductors&lt;/b&gt;&lt;p&gt;
Based on the previous libraries:
&lt;ul&gt;
&lt;li&gt;r.lbr
&lt;li&gt;cap.lbr 
&lt;li&gt;cap-fe.lbr
&lt;li&gt;captant.lbr
&lt;li&gt;polcap.lbr
&lt;li&gt;ipc-smd.lbr
&lt;/ul&gt;
All SMD packages are defined according to the IPC specifications and  CECC&lt;p&gt;
&lt;author&gt;Created by librarian@cadsoft.de&lt;/author&gt;&lt;p&gt;
&lt;p&gt;
for Electrolyt Capacitors see also :&lt;p&gt;
www.bccomponents.com &lt;p&gt;
www.panasonic.com&lt;p&gt;
www.kemet.com&lt;p&gt;
http://www.secc.co.jp/pdf/os_e/2004/e_os_all.pdf &lt;b&gt;(SANYO)&lt;/b&gt;
&lt;p&gt;
for trimmer refence see : &lt;u&gt;www.electrospec-inc.com/cross_references/trimpotcrossref.asp&lt;/u&gt;&lt;p&gt;

&lt;table border=0 cellspacing=0 cellpadding=0 width="100%" cellpaddding=0&gt;
&lt;tr valign="top"&gt;

&lt;! &lt;td width="10"&gt;&amp;nbsp;&lt;/td&gt;
&lt;td width="90%"&gt;

&lt;b&gt;&lt;font color="#0000FF" size="4"&gt;TRIM-POT CROSS REFERENCE&lt;/font&gt;&lt;/b&gt;
&lt;P&gt;
&lt;TABLE BORDER=0 CELLSPACING=1 CELLPADDING=2&gt;
  &lt;TR&gt;
    &lt;TD COLSPAN=8&gt;
      &lt;FONT SIZE=3 FACE=ARIAL&gt;&lt;B&gt;RECTANGULAR MULTI-TURN&lt;/B&gt;&lt;/FONT&gt;
    &lt;/TD&gt;
  &lt;/TR&gt;
  &lt;TR&gt;
    &lt;TD ALIGN=CENTER&gt;
      &lt;B&gt;
      &lt;FONT SIZE=3 FACE=ARIAL color="#FF0000"&gt;BOURNS&lt;/FONT&gt;
      &lt;/B&gt;
    &lt;/TD&gt;
    &lt;TD ALIGN=CENTER&gt;
      &lt;B&gt;
      &lt;FONT SIZE=3 FACE=ARIAL color="#FF0000"&gt;BI&amp;nbsp;TECH&lt;/FONT&gt;
      &lt;/B&gt;
    &lt;/TD&gt;
    &lt;TD ALIGN=CENTER&gt;
      &lt;B&gt;
      &lt;FONT SIZE=3 FACE=ARIAL color="#FF0000"&gt;DALE-VISHAY&lt;/FONT&gt;
      &lt;/B&gt;
    &lt;/TD&gt;
    &lt;TD ALIGN=CENTER&gt;
      &lt;B&gt;
      &lt;FONT SIZE=3 FACE=ARIAL color="#FF0000"&gt;PHILIPS/MEPCO&lt;/FONT&gt;
      &lt;/B&gt;
    &lt;/TD&gt;
    &lt;TD ALIGN=CENTER&gt;
      &lt;B&gt;
      &lt;FONT SIZE=3 FACE=ARIAL color="#FF0000"&gt;MURATA&lt;/FONT&gt;
      &lt;/B&gt;
    &lt;/TD&gt;
    &lt;TD ALIGN=CENTER&gt;
      &lt;B&gt;
      &lt;FONT SIZE=3 FACE=ARIAL color="#FF0000"&gt;PANASONIC&lt;/FONT&gt;
      &lt;/B&gt;
    &lt;/TD&gt;
    &lt;TD ALIGN=CENTER&gt;
      &lt;B&gt;
      &lt;FONT SIZE=3 FACE=ARIAL color="#FF0000"&gt;SPECTROL&lt;/FONT&gt;
      &lt;/B&gt;
    &lt;/TD&gt;
    &lt;TD ALIGN=CENTER&gt;
      &lt;B&gt;
      &lt;FONT SIZE=3 FACE=ARIAL color="#FF0000"&gt;MILSPEC&lt;/FONT&gt;
      &lt;/B&gt;
    &lt;/TD&gt;&lt;TD&gt;&amp;nbsp;&lt;/TD&gt;
  &lt;/TR&gt;
  &lt;TR&gt;
    &lt;TD BGCOLOR="#cccccc" ALIGN=CENTER&gt;&lt;FONT FACE=ARIAL SIZE=3 &gt;
      3005P&lt;BR&gt;
      3006P&lt;BR&gt;
      3006W&lt;BR&gt;
      3006Y&lt;BR&gt;
      3009P&lt;BR&gt;
      3009W&lt;BR&gt;
      3009Y&lt;BR&gt;
      3057J&lt;BR&gt;
      3057L&lt;BR&gt;
      3057P&lt;BR&gt;
      3057Y&lt;BR&gt;
      3059J&lt;BR&gt;
      3059L&lt;BR&gt;
      3059P&lt;BR&gt;
      3059Y&lt;BR&gt;&lt;/FONT&gt;
    &lt;/TD&gt;
    &lt;TD BGCOLOR="#cccccc" ALIGN=CENTER&gt;&lt;FONT FACE=ARIAL SIZE=3&gt;
      -&lt;BR&gt;
      89P&lt;BR&gt;
      89W&lt;BR&gt;
      89X&lt;BR&gt;
      89PH&lt;BR&gt;
      76P&lt;BR&gt;
      89XH&lt;BR&gt;
      78SLT&lt;BR&gt;
      78L&amp;nbsp;ALT&lt;BR&gt;
      56P&amp;nbsp;ALT&lt;BR&gt;
      78P&amp;nbsp;ALT&lt;BR&gt;
      T8S&lt;BR&gt;
      78L&lt;BR&gt;
      56P&lt;BR&gt;
      78P&lt;BR&gt;&lt;/FONT&gt;
    &lt;/TD&gt;
    &lt;TD BGCOLOR="#cccccc" ALIGN=CENTER&gt;&lt;FONT FACE=ARIAL SIZE=3&gt;
      -&lt;BR&gt;
      T18/784&lt;BR&gt;
      783&lt;BR&gt;
      781&lt;BR&gt;
      -&lt;BR&gt;
      -&lt;BR&gt;
      -&lt;BR&gt;
      2199&lt;BR&gt;
      1697/1897&lt;BR&gt;
      1680/1880&lt;BR&gt;
      2187&lt;BR&gt;
      -&lt;BR&gt;
      -&lt;BR&gt;
      -&lt;BR&gt;
      -&lt;BR&gt;&lt;/FONT&gt;
    &lt;/TD&gt;
    &lt;TD BGCOLOR="#cccccc" ALIGN=CENTER&gt;&lt;FONT FACE=ARIAL SIZE=3&gt;
      -&lt;BR&gt;
      8035EKP/CT20/RJ-20P&lt;BR&gt;
      -&lt;BR&gt;
      RJ-20X&lt;BR&gt;
      -&lt;BR&gt;
      -&lt;BR&gt;
      -&lt;BR&gt;
      1211L&lt;BR&gt;
      8012EKQ&amp;nbsp;ALT&lt;BR&gt;
      8012EKR&amp;nbsp;ALT&lt;BR&gt;
      1211P&lt;BR&gt;
      8012EKJ&lt;BR&gt;
      8012EKL&lt;BR&gt;
      8012EKQ&lt;BR&gt;
      8012EKR&lt;BR&gt;&lt;/FONT&gt;
    &lt;/TD&gt;
    &lt;TD BGCOLOR="#cccccc" ALIGN=CENTER&gt;&lt;FONT FACE=ARIAL SIZE=3&gt;
      -&lt;BR&gt;
      2101P&lt;BR&gt;
      2101W&lt;BR&gt;
      2101Y&lt;BR&gt;
      -&lt;BR&gt;
      -&lt;BR&gt;
      -&lt;BR&gt;
      -&lt;BR&gt;
      -&lt;BR&gt;
      -&lt;BR&gt;
      -&lt;BR&gt;
      -&lt;BR&gt;
      2102L&lt;BR&gt;
      2102S&lt;BR&gt;
      2102Y&lt;BR&gt;&lt;/FONT&gt;
    &lt;/TD&gt;
    &lt;TD BGCOLOR="#cccccc" ALIGN=CENTER&gt;&lt;FONT FACE=ARIAL SIZE=3&gt;
      -&lt;BR&gt;
      EVMCOG&lt;BR&gt;
      -&lt;BR&gt;
      -&lt;BR&gt;
      -&lt;BR&gt;
      -&lt;BR&gt;
      -&lt;BR&gt;
      -&lt;BR&gt;
      -&lt;BR&gt;
      -&lt;BR&gt;
      -&lt;BR&gt;
      -&lt;BR&gt;
      -&lt;BR&gt;
      -&lt;BR&gt;
      -&lt;BR&gt;&lt;/FONT&gt;
    &lt;/TD&gt;
    &lt;TD BGCOLOR="#cccccc" ALIGN=CENTER&gt;&lt;FONT FACE=ARIAL SIZE=3&gt;
      -&lt;BR&gt;
      43P&lt;BR&gt;
      43W&lt;BR&gt;
      43Y&lt;BR&gt;
      -&lt;BR&gt;
      -&lt;BR&gt;
      -&lt;BR&gt;
      -&lt;BR&gt;
      40L&lt;BR&gt;
      40P&lt;BR&gt;
      40Y&lt;BR&gt;
      70Y-T602&lt;BR&gt;
      70L&lt;BR&gt;
      70P&lt;BR&gt;
      70Y&lt;BR&gt;&lt;/FONT&gt;
    &lt;/TD&gt;
    &lt;TD BGCOLOR="#cccccc" ALIGN=CENTER&gt;&lt;FONT FACE=ARIAL SIZE=3&gt;
      -&lt;BR&gt;
      -&lt;BR&gt;
      -&lt;BR&gt;
      -&lt;BR&gt;
      -&lt;BR&gt;
      -&lt;BR&gt;
      -&lt;BR&gt;
      -&lt;BR&gt;
      RT/RTR12&lt;BR&gt;
      RT/RTR12&lt;BR&gt;
      RT/RTR12&lt;BR&gt;
      -&lt;BR&gt;
      RJ/RJR12&lt;BR&gt;
      RJ/RJR12&lt;BR&gt;
      RJ/RJR12&lt;BR&gt;&lt;/FONT&gt;
    &lt;/TD&gt;
  &lt;/TR&gt;
  &lt;TR&gt;
    &lt;TD COLSPAN=8&gt;&amp;nbsp;
    &lt;/TD&gt;
  &lt;/TR&gt;
  &lt;TR&gt;
    &lt;TD COLSPAN=8&gt;
      &lt;FONT SIZE=4 FACE=ARIAL&gt;&lt;B&gt;SQUARE MULTI-TURN&lt;/B&gt;&lt;/FONT&gt;
    &lt;/TD&gt;
  &lt;/TR&gt;
  &lt;TR&gt;
   &lt;TD ALIGN=CENTER&gt;
      &lt;FONT SIZE=3 FACE=ARIAL&gt;&lt;B&gt;BOURN&lt;/B&gt;&lt;/FONT&gt;
    &lt;/TD&gt;
    &lt;TD ALIGN=CENTER&gt;
      &lt;FONT SIZE=3 FACE=ARIAL&gt;&lt;B&gt;BI&amp;nbsp;TECH&lt;/B&gt;&lt;/FONT&gt;
    &lt;/TD&gt;
    &lt;TD ALIGN=CENTER&gt;
      &lt;FONT SIZE=3 FACE=ARIAL&gt;&lt;B&gt;DALE-VISHAY&lt;/B&gt;&lt;/FONT&gt;
    &lt;/TD&gt;
    &lt;TD ALIGN=CENTER&gt;
      &lt;FONT SIZE=3 FACE=ARIAL&gt;&lt;B&gt;PHILIPS/MEPCO&lt;/B&gt;&lt;/FONT&gt;
    &lt;/TD&gt;
    &lt;TD ALIGN=CENTER&gt;
      &lt;FONT SIZE=3 FACE=ARIAL&gt;&lt;B&gt;MURATA&lt;/B&gt;&lt;/FONT&gt;
    &lt;/TD&gt;
    &lt;TD ALIGN=CENTER&gt;
      &lt;FONT SIZE=3 FACE=ARIAL&gt;&lt;B&gt;PANASONIC&lt;/B&gt;&lt;/FONT&gt;
    &lt;/TD&gt;
    &lt;TD ALIGN=CENTER&gt;
      &lt;FONT SIZE=3 FACE=ARIAL&gt;&lt;B&gt;SPECTROL&lt;/B&gt;&lt;/FONT&gt;
    &lt;/TD&gt;
    &lt;TD ALIGN=CENTER&gt;
      &lt;FONT SIZE=3 FACE=ARIAL&gt;&lt;B&gt;MILSPEC&lt;/B&gt;&lt;/FONT&gt;
    &lt;/TD&gt;
  &lt;/TR&gt;
  &lt;TR&gt;
    &lt;TD BGCOLOR="#cccccc" ALIGN=CENTER&gt;&lt;FONT FACE=ARIAL SIZE=3&gt;
      3250L&lt;BR&gt;
      3250P&lt;BR&gt;
      3250W&lt;BR&gt;
      3250X&lt;BR&gt;
      3252P&lt;BR&gt;
      3252W&lt;BR&gt;
      3252X&lt;BR&gt;
      3260P&lt;BR&gt;
      3260W&lt;BR&gt;
      3260X&lt;BR&gt;
      3262P&lt;BR&gt;
      3262W&lt;BR&gt;
      3262X&lt;BR&gt;
      3266P&lt;BR&gt;
      3266W&lt;BR&gt;
      3266X&lt;BR&gt;
      3290H&lt;BR&gt;
      3290P&lt;BR&gt;
      3290W&lt;BR&gt;
      3292P&lt;BR&gt;
      3292W&lt;BR&gt;
      3292X&lt;BR&gt;
      3296P&lt;BR&gt;
      3296W&lt;BR&gt;
      3296X&lt;BR&gt;
      3296Y&lt;BR&gt;
      3296Z&lt;BR&gt;
      3299P&lt;BR&gt;
      3299W&lt;BR&gt;
      3299X&lt;BR&gt;
      3299Y&lt;BR&gt;
      3299Z&lt;BR&gt;&lt;/FONT&gt;
    &lt;/TD&gt;
    &lt;TD BGCOLOR="#cccccc" ALIGN=CENTER&gt;&lt;FONT FACE=ARIAL SIZE=3&gt;
      -&lt;BR&gt;
      66P&amp;nbsp;ALT&lt;BR&gt;
      66W&amp;nbsp;ALT&lt;BR&gt;
      66X&amp;nbsp;ALT&lt;BR&gt;
      66P&amp;nbsp;ALT&lt;BR&gt;
      66W&amp;nbsp;ALT&lt;BR&gt;
      66X&amp;nbsp;ALT&lt;BR&gt;
      -&lt;BR&gt;
      64W&amp;nbsp;ALT&lt;BR&gt;
      -&lt;BR&gt;
      64P&amp;nbsp;ALT&lt;BR&gt;
      64W&amp;nbsp;ALT&lt;BR&gt;
      64X&amp;nbsp;ALT&lt;BR&gt;
      64P&lt;BR&gt;
      64W&lt;BR&gt;
      64X&lt;BR&gt;
      66X&amp;nbsp;ALT&lt;BR&gt;
      66P&amp;nbsp;ALT&lt;BR&gt;
      66W&amp;nbsp;ALT&lt;BR&gt;
      66P&lt;BR&gt;
      66W&lt;BR&gt;
      66X&lt;BR&gt;
      67P&lt;BR&gt;
      67W&lt;BR&gt;
      67X&lt;BR&gt;
      67Y&lt;BR&gt;
      67Z&lt;BR&gt;
      68P&lt;BR&gt;
      68W&lt;BR&gt;
      68X&lt;BR&gt;
      67Y&amp;nbsp;ALT&lt;BR&gt;
      67Z&amp;nbsp;ALT&lt;BR&gt;&lt;/FONT&gt;
    &lt;/TD&gt;
    &lt;TD BGCOLOR="#cccccc" ALIGN=CENTER&gt;&lt;FONT FACE=ARIAL SIZE=3&gt;
      5050&lt;BR&gt;
      5091&lt;BR&gt;
      5080&lt;BR&gt;
      5087&lt;BR&gt;
      -&lt;BR&gt;
      -&lt;BR&gt;
      -&lt;BR&gt;
      -&lt;BR&gt;
      -&lt;BR&gt;
      -&lt;BR&gt;
      -&lt;BR&gt;
      T63YB&lt;BR&gt;
      T63XB&lt;BR&gt;
      -&lt;BR&gt;
      -&lt;BR&gt;
      -&lt;BR&gt;
      5887&lt;BR&gt;
      5891&lt;BR&gt;
      5880&lt;BR&gt;
      -&lt;BR&gt;
      -&lt;BR&gt;
      -&lt;BR&gt;
      T93Z&lt;BR&gt;
      T93YA&lt;BR&gt;
      T93XA&lt;BR&gt;
      T93YB&lt;BR&gt;
      T93XB&lt;BR&gt;
      -&lt;BR&gt;
      -&lt;BR&gt;
      -&lt;BR&gt;
      -&lt;BR&gt;
      -&lt;BR&gt;&lt;/FONT&gt;
    &lt;/TD&gt;
    &lt;TD BGCOLOR="#cccccc" ALIGN=CENTER&gt;&lt;FONT FACE=ARIAL SIZE=3&gt;
      -&lt;BR&gt;
      -&lt;BR&gt;
      -&lt;BR&gt;
      -&lt;BR&gt;
      -&lt;BR&gt;
      -&lt;BR&gt;
      -&lt;BR&gt;
      -&lt;BR&gt;
      -&lt;BR&gt;
      -&lt;BR&gt;
      8026EKP&lt;BR&gt;
      8026EKW&lt;BR&gt;
      8026EKM&lt;BR&gt;
      8026EKP&lt;BR&gt;
      8026EKB&lt;BR&gt;
      8026EKM&lt;BR&gt;
      1309X&lt;BR&gt;
      1309P&lt;BR&gt;
      1309W&lt;BR&gt;
      8024EKP&lt;BR&gt;
      8024EKW&lt;BR&gt;
      8024EKN&lt;BR&gt;
      RJ-9P/CT9P&lt;BR&gt;
      RJ-9W&lt;BR&gt;
      RJ-9X&lt;BR&gt;
      -&lt;BR&gt;
      -&lt;BR&gt;
      -&lt;BR&gt;
      -&lt;BR&gt;
      -&lt;BR&gt;
      -&lt;BR&gt;
      -&lt;BR&gt;&lt;/FONT&gt;
    &lt;/TD&gt;
    &lt;TD BGCOLOR="#cccccc" ALIGN=CENTER&gt;&lt;FONT FACE=ARIAL SIZE=3&gt;
      -&lt;BR&gt;
      -&lt;BR&gt;
      -&lt;BR&gt;
      -&lt;BR&gt;
      -&lt;BR&gt;
      -&lt;BR&gt;
      -&lt;BR&gt;
      -&lt;BR&gt;
      -&lt;BR&gt;
      -&lt;BR&gt;
      3103P&lt;BR&gt;
      3103Y&lt;BR&gt;
      3103Z&lt;BR&gt;
      3103P&lt;BR&gt;
      3103Y&lt;BR&gt;
      3103Z&lt;BR&gt;
      -&lt;BR&gt;
      -&lt;BR&gt;
      -&lt;BR&gt;
      -&lt;BR&gt;
      -&lt;BR&gt;
      -&lt;BR&gt;
      3105P/3106P&lt;BR&gt;
      3105W/3106W&lt;BR&gt;
      3105X/3106X&lt;BR&gt;
      3105Y/3106Y&lt;BR&gt;
      3105Z/3105Z&lt;BR&gt;
      3102P&lt;BR&gt;
      3102W&lt;BR&gt;
      3102X&lt;BR&gt;
      3102Y&lt;BR&gt;
      3102Z&lt;BR&gt;&lt;/FONT&gt;
    &lt;/TD&gt;
    &lt;TD BGCOLOR="#cccccc" ALIGN=CENTER&gt;&lt;FONT FACE=ARIAL SIZE=3&gt;
      -&lt;BR&gt;
      -&lt;BR&gt;
      -&lt;BR&gt;
      -&lt;BR&gt;
      -&lt;BR&gt;
      -&lt;BR&gt;
      -&lt;BR&gt;
      -&lt;BR&gt;
      -&lt;BR&gt;
      -&lt;BR&gt;
      -&lt;BR&gt;
      -&lt;BR&gt;
      -&lt;BR&gt;
      -&lt;BR&gt;
      -&lt;BR&gt;
      -&lt;BR&gt;
      -&lt;BR&gt;
      -&lt;BR&gt;
      -&lt;BR&gt;
      -&lt;BR&gt;
      -&lt;BR&gt;
      -&lt;BR&gt;
      EVMCBG&lt;BR&gt;
      EVMCCG&lt;BR&gt;
      -&lt;BR&gt;
      -&lt;BR&gt;
      -&lt;BR&gt;
      -&lt;BR&gt;
      -&lt;BR&gt;
      -&lt;BR&gt;
      -&lt;BR&gt;
      -&lt;BR&gt;&lt;/FONT&gt;
    &lt;/TD&gt;
    &lt;TD BGCOLOR="#cccccc" ALIGN=CENTER&gt;&lt;FONT FACE=ARIAL SIZE=3&gt;
      55-1-X&lt;BR&gt;
      55-4-X&lt;BR&gt;
      55-3-X&lt;BR&gt;
      55-2-X&lt;BR&gt;
      -&lt;BR&gt;
      -&lt;BR&gt;
      -&lt;BR&gt;
      -&lt;BR&gt;
      -&lt;BR&gt;
      -&lt;BR&gt;
      -&lt;BR&gt;
      -&lt;BR&gt;
      -&lt;BR&gt;
      -&lt;BR&gt;
      -&lt;BR&gt;
      -&lt;BR&gt;
      50-2-X&lt;BR&gt;
      50-4-X&lt;BR&gt;
      50-3-X&lt;BR&gt;
      -&lt;BR&gt;
      -&lt;BR&gt;
      -&lt;BR&gt;
      64P&lt;BR&gt;
      64W&lt;BR&gt;
      64X&lt;BR&gt;
      64Y&lt;BR&gt;
      64Z&lt;BR&gt;
      -&lt;BR&gt;
      -&lt;BR&gt;
      -&lt;BR&gt;
      -&lt;BR&gt;
      -&lt;BR&gt;&lt;/FONT&gt;
    &lt;/TD&gt;
    &lt;TD BGCOLOR="#cccccc" ALIGN=CENTER&gt;&lt;FONT FACE=ARIAL SIZE=3&gt;
      RT/RTR22&lt;BR&gt;
      RT/RTR22&lt;BR&gt;
      RT/RTR22&lt;BR&gt;
      RT/RTR22&lt;BR&gt;
      RJ/RJR22&lt;BR&gt;
      RJ/RJR22&lt;BR&gt;
      RJ/RJR22&lt;BR&gt;
      RT/RTR26&lt;BR&gt;
      RT/RTR26&lt;BR&gt;
      RT/RTR26&lt;BR&gt;
      RJ/RJR26&lt;BR&gt;
      RJ/RJR26&lt;BR&gt;
      RJ/RJR26&lt;BR&gt;
      RJ/RJR26&lt;BR&gt;
      RJ/RJR26&lt;BR&gt;
      RJ/RJR26&lt;BR&gt;
      RT/RTR24&lt;BR&gt;
      RT/RTR24&lt;BR&gt;
      RT/RTR24&lt;BR&gt;
      RJ/RJR24&lt;BR&gt;
      RJ/RJR24&lt;BR&gt;
      RJ/RJR24&lt;BR&gt;
      RJ/RJR24&lt;BR&gt;
      RJ/RJR24&lt;BR&gt;
      RJ/RJR24&lt;BR&gt;
      -&lt;BR&gt;
      -&lt;BR&gt;
      -&lt;BR&gt;
      -&lt;BR&gt;
      -&lt;BR&gt;
      -&lt;BR&gt;
      -&lt;BR&gt;&lt;/FONT&gt;
    &lt;/TD&gt;
  &lt;/TR&gt;
  &lt;TR&gt;
    &lt;TD COLSPAN=8&gt;&amp;nbsp;
    &lt;/TD&gt;
  &lt;/TR&gt;
  &lt;TR&gt;
    &lt;TD COLSPAN=8&gt;
      &lt;FONT SIZE=4 FACE=ARIAL&gt;&lt;B&gt;SINGLE TURN&lt;/B&gt;&lt;/FONT&gt;
    &lt;/TD&gt;
  &lt;/TR&gt;
  &lt;TR&gt;
    &lt;TD ALIGN=CENTER&gt;
      &lt;FONT SIZE=3 FACE=ARIAL&gt;&lt;B&gt;BOURN&lt;/B&gt;&lt;/FONT&gt;
    &lt;/TD&gt;
    &lt;TD ALIGN=CENTER&gt;
      &lt;FONT SIZE=3 FACE=ARIAL&gt;&lt;B&gt;BI&amp;nbsp;TECH&lt;/B&gt;&lt;/FONT&gt;
    &lt;/TD&gt;
    &lt;TD ALIGN=CENTER&gt;
      &lt;FONT SIZE=3 FACE=ARIAL&gt;&lt;B&gt;DALE-VISHAY&lt;/B&gt;&lt;/FONT&gt;
    &lt;/TD&gt;
    &lt;TD ALIGN=CENTER&gt;
      &lt;FONT SIZE=3 FACE=ARIAL&gt;&lt;B&gt;PHILIPS/MEPCO&lt;/B&gt;&lt;/FONT&gt;
    &lt;/TD&gt;
    &lt;TD ALIGN=CENTER&gt;
      &lt;FONT SIZE=3 FACE=ARIAL&gt;&lt;B&gt;MURATA&lt;/B&gt;&lt;/FONT&gt;
    &lt;/TD&gt;
    &lt;TD ALIGN=CENTER&gt;
      &lt;FONT SIZE=3 FACE=ARIAL&gt;&lt;B&gt;PANASONIC&lt;/B&gt;&lt;/FONT&gt;
    &lt;/TD&gt;
    &lt;TD ALIGN=CENTER&gt;
      &lt;FONT SIZE=3 FACE=ARIAL&gt;&lt;B&gt;SPECTROL&lt;/B&gt;&lt;/FONT&gt;
    &lt;/TD&gt;
    &lt;TD ALIGN=CENTER&gt;
      &lt;FONT SIZE=3 FACE=ARIAL&gt;&lt;B&gt;MILSPEC&lt;/B&gt;&lt;/FONT&gt;
    &lt;/TD&gt;
  &lt;/TR&gt;
  &lt;TR&gt;
    &lt;TD BGCOLOR="#cccccc" ALIGN=CENTER&gt;&lt;FONT FACE=ARIAL SIZE=3&gt;
      3323P&lt;BR&gt;
      3323S&lt;BR&gt;
      3323W&lt;BR&gt;
      3329H&lt;BR&gt;
      3329P&lt;BR&gt;
      3329W&lt;BR&gt;
      3339H&lt;BR&gt;
      3339P&lt;BR&gt;
      3339W&lt;BR&gt;
      3352E&lt;BR&gt;
      3352H&lt;BR&gt;
      3352K&lt;BR&gt;
      3352P&lt;BR&gt;
      3352T&lt;BR&gt;
      3352V&lt;BR&gt;
      3352W&lt;BR&gt;
      3362H&lt;BR&gt;
      3362M&lt;BR&gt;
      3362P&lt;BR&gt;
      3362R&lt;BR&gt;
      3362S&lt;BR&gt;
      3362U&lt;BR&gt;
      3362W&lt;BR&gt;
      3362X&lt;BR&gt;
      3386B&lt;BR&gt;
      3386C&lt;BR&gt;
      3386F&lt;BR&gt;
      3386H&lt;BR&gt;
      3386K&lt;BR&gt;
      3386M&lt;BR&gt;
      3386P&lt;BR&gt;
      3386S&lt;BR&gt;
      3386W&lt;BR&gt;
      3386X&lt;BR&gt;&lt;/FONT&gt;
    &lt;/TD&gt;
    &lt;TD BGCOLOR="#cccccc" ALIGN=CENTER&gt;&lt;FONT FACE=ARIAL SIZE=3&gt;
      25P&lt;BR&gt;
      25S&lt;BR&gt;
      25RX&lt;BR&gt;
      82P&lt;BR&gt;
      82M&lt;BR&gt;
      82PA&lt;BR&gt;
      -&lt;BR&gt;
      -&lt;BR&gt;
      -&lt;BR&gt;
      91E&lt;BR&gt;
      91X&lt;BR&gt;
      91T&lt;BR&gt;
      91B&lt;BR&gt;
      91A&lt;BR&gt;
      91V&lt;BR&gt;
      91W&lt;BR&gt;
      25W&lt;BR&gt;
      25V&lt;BR&gt;
      25P&lt;BR&gt;
      -&lt;BR&gt;
      25S&lt;BR&gt;
      25U&lt;BR&gt;
      25RX&lt;BR&gt;
      25X&lt;BR&gt;
      72XW&lt;BR&gt;
      72XL&lt;BR&gt;
      72PM&lt;BR&gt;
      72RX&lt;BR&gt;
      -&lt;BR&gt;
      72PX&lt;BR&gt;
      72P&lt;BR&gt;
      72RXW&lt;BR&gt;
      72RXL&lt;BR&gt;
      72X&lt;BR&gt;&lt;/FONT&gt;
    &lt;/TD&gt;
    &lt;TD BGCOLOR="#cccccc" ALIGN=CENTER&gt;&lt;FONT FACE=ARIAL SIZE=3&gt;
      -&lt;BR&gt;
      -&lt;BR&gt;
      -&lt;BR&gt;
      T7YB&lt;BR&gt;
      T7YA&lt;BR&gt;
      -&lt;BR&gt;
      -&lt;BR&gt;
      -&lt;BR&gt;
      -&lt;BR&gt;
      -&lt;BR&gt;
      -&lt;BR&gt;
      -&lt;BR&gt;
      -&lt;BR&gt;
      -&lt;BR&gt;
      -&lt;BR&gt;
      -&lt;BR&gt;
      -&lt;BR&gt;
      TXD&lt;BR&gt;
      TYA&lt;BR&gt;
      TYP&lt;BR&gt;
      -&lt;BR&gt;
      TYD&lt;BR&gt;
      TX&lt;BR&gt;
      -&lt;BR&gt;
      150SX&lt;BR&gt;
      100SX&lt;BR&gt;
      102T&lt;BR&gt;
      101S&lt;BR&gt;
      190T&lt;BR&gt;
      150TX&lt;BR&gt;
      101&lt;BR&gt;
      -&lt;BR&gt;
      -&lt;BR&gt;
      101SX&lt;BR&gt;&lt;/FONT&gt;
    &lt;/TD&gt;
    &lt;TD BGCOLOR="#cccccc" ALIGN=CENTER&gt;&lt;FONT FACE=ARIAL SIZE=3&gt;
      ET6P&lt;BR&gt;
      ET6S&lt;BR&gt;
      ET6X&lt;BR&gt;
      RJ-6W/8014EMW&lt;BR&gt;
      RJ-6P/8014EMP&lt;BR&gt;
      RJ-6X/8014EMX&lt;BR&gt;
      TM7W&lt;BR&gt;
      TM7P&lt;BR&gt;
      TM7X&lt;BR&gt;
      -&lt;BR&gt;
      8017SMS&lt;BR&gt;
      -&lt;BR&gt;
      8017SMB&lt;BR&gt;
      8017SMA&lt;BR&gt;
      -&lt;BR&gt;
      -&lt;BR&gt;
      CT-6W&lt;BR&gt;
      CT-6H&lt;BR&gt;
      CT-6P&lt;BR&gt;
      CT-6R&lt;BR&gt;
      -&lt;BR&gt;
      CT-6V&lt;BR&gt;
      CT-6X&lt;BR&gt;
      -&lt;BR&gt;
      -&lt;BR&gt;
      8038EKV&lt;BR&gt;
      -&lt;BR&gt;
      8038EKX&lt;BR&gt;
      -&lt;BR&gt;
      -&lt;BR&gt;
      8038EKP&lt;BR&gt;
      8038EKZ&lt;BR&gt;
      8038EKW&lt;BR&gt;
      -&lt;BR&gt;&lt;/FONT&gt;
    &lt;/TD&gt;
    &lt;TD BGCOLOR="#cccccc" ALIGN=CENTER&gt;&lt;FONT FACE=ARIAL SIZE=3&gt;
      -&lt;BR&gt;
      -&lt;BR&gt;
      -&lt;BR&gt;
      3321H&lt;BR&gt;
      3321P&lt;BR&gt;
      3321N&lt;BR&gt;
      1102H&lt;BR&gt;
      1102P&lt;BR&gt;
      1102T&lt;BR&gt;
      RVA0911V304A&lt;BR&gt;
      -&lt;BR&gt;
      RVA0911H413A&lt;BR&gt;
      RVG0707V100A&lt;BR&gt;
      RVA0607V(H)306A&lt;BR&gt;
      RVA1214H213A&lt;BR&gt;
      -&lt;BR&gt;
      -&lt;BR&gt;
      -&lt;BR&gt;
      -&lt;BR&gt;
      -&lt;BR&gt;
      -&lt;BR&gt;
      -&lt;BR&gt;
      -&lt;BR&gt;
      -&lt;BR&gt;
      3104B&lt;BR&gt;
      3104C&lt;BR&gt;
      3104F&lt;BR&gt;
      3104H&lt;BR&gt;
      -&lt;BR&gt;
      3104M&lt;BR&gt;
      3104P&lt;BR&gt;
      3104S&lt;BR&gt;
      3104W&lt;BR&gt;
      3104X&lt;BR&gt;&lt;/FONT&gt;
    &lt;/TD&gt;
    &lt;TD BGCOLOR="#cccccc" ALIGN=CENTER&gt;&lt;FONT FACE=ARIAL SIZE=3&gt;
      EVMQ0G&lt;BR&gt;
      EVMQIG&lt;BR&gt;
      EVMQ3G&lt;BR&gt;
      EVMS0G&lt;BR&gt;
      EVMQ0G&lt;BR&gt;
      EVMG0G&lt;BR&gt;
      -&lt;BR&gt;
      -&lt;BR&gt;
      -&lt;BR&gt;
      EVMK4GA00B&lt;BR&gt;
      EVM30GA00B&lt;BR&gt;
      EVMK0GA00B&lt;BR&gt;
      EVM38GA00B&lt;BR&gt;
      EVMB6&lt;BR&gt;
      EVLQ0&lt;BR&gt;
      -&lt;BR&gt;
      EVMMSG&lt;BR&gt;
      EVMMBG&lt;BR&gt;
      EVMMAG&lt;BR&gt;
      -&lt;BR&gt;
      -&lt;BR&gt;
      EVMMCS&lt;BR&gt;
      -&lt;BR&gt;
      -&lt;BR&gt;
      -&lt;BR&gt;
      -&lt;BR&gt;
      -&lt;BR&gt;
      EVMM1&lt;BR&gt;
      -&lt;BR&gt;
      -&lt;BR&gt;
      EVMM0&lt;BR&gt;
      -&lt;BR&gt;
      -&lt;BR&gt;
      EVMM3&lt;BR&gt;&lt;/FONT&gt;
    &lt;/TD&gt;
    &lt;TD BGCOLOR="#cccccc" ALIGN=CENTER&gt;&lt;FONT FACE=ARIAL SIZE=3&gt;
      -&lt;BR&gt;
      -&lt;BR&gt;
      -&lt;BR&gt;
      62-3-1&lt;BR&gt;
      62-1-2&lt;BR&gt;
      -&lt;BR&gt;
      -&lt;BR&gt;
      -&lt;BR&gt;
      -&lt;BR&gt;
      -&lt;BR&gt;
      -&lt;BR&gt;
      -&lt;BR&gt;
      -&lt;BR&gt;
      -&lt;BR&gt;
      -&lt;BR&gt;
      -&lt;BR&gt;
      67R&lt;BR&gt;
      -&lt;BR&gt;
      67P&lt;BR&gt;
      -&lt;BR&gt;
      -&lt;BR&gt;
      -&lt;BR&gt;
      -&lt;BR&gt;
      67X&lt;BR&gt;
      63V&lt;BR&gt;
      63S&lt;BR&gt;
      63M&lt;BR&gt;
      -&lt;BR&gt;
      -&lt;BR&gt;
      63H&lt;BR&gt;
      63P&lt;BR&gt;
      -&lt;BR&gt;
      -&lt;BR&gt;
      63X&lt;BR&gt;&lt;/FONT&gt;
    &lt;/TD&gt;
    &lt;TD BGCOLOR="#cccccc" ALIGN=CENTER&gt;&lt;FONT FACE=ARIAL SIZE=3&gt;
      -&lt;BR&gt;
      -&lt;BR&gt;
      -&lt;BR&gt;
      RJ/RJR50&lt;BR&gt;
      RJ/RJR50&lt;BR&gt;
      RJ/RJR50&lt;BR&gt;
      -&lt;BR&gt;
      -&lt;BR&gt;
      -&lt;BR&gt;
      -&lt;BR&gt;
      -&lt;BR&gt;
      -&lt;BR&gt;
      -&lt;BR&gt;
      -&lt;BR&gt;
      -&lt;BR&gt;
      -&lt;BR&gt;
      -&lt;BR&gt;
      -&lt;BR&gt;
      -&lt;BR&gt;
      -&lt;BR&gt;
      -&lt;BR&gt;
      -&lt;BR&gt;
      -&lt;BR&gt;
      -&lt;BR&gt;
      -&lt;BR&gt;
      -&lt;BR&gt;
      -&lt;BR&gt;
      -&lt;BR&gt;
      -&lt;BR&gt;
      -&lt;BR&gt;
      -&lt;BR&gt;
      -&lt;BR&gt;
      -&lt;BR&gt;
      -&lt;BR&gt;&lt;/FONT&gt;
    &lt;/TD&gt;
  &lt;/TR&gt;
&lt;/TABLE&gt;
&lt;P&gt;&amp;nbsp;&lt;P&gt;
&lt;TABLE BORDER=0 CELLSPACING=1 CELLPADDING=3&gt;
  &lt;TR&gt;
    &lt;TD COLSPAN=7&gt;
      &lt;FONT color="#0000FF" SIZE=4 FACE=ARIAL&gt;&lt;B&gt;SMD TRIM-POT CROSS REFERENCE&lt;/B&gt;&lt;/FONT&gt;
      &lt;P&gt;
      &lt;FONT SIZE=4 FACE=ARIAL&gt;&lt;B&gt;MULTI-TURN&lt;/B&gt;&lt;/FONT&gt;
    &lt;/TD&gt;
  &lt;/TR&gt;
  &lt;TR&gt;
    &lt;TD&gt;
      &lt;FONT SIZE=3 FACE=ARIAL&gt;&lt;B&gt;BOURNS&lt;/B&gt;&lt;/FONT&gt;
    &lt;/TD&gt;
    &lt;TD&gt;
      &lt;FONT SIZE=3 FACE=ARIAL&gt;&lt;B&gt;BI&amp;nbsp;TECH&lt;/B&gt;&lt;/FONT&gt;
    &lt;/TD&gt;
    &lt;TD&gt;
      &lt;FONT SIZE=3 FACE=ARIAL&gt;&lt;B&gt;DALE-VISHAY&lt;/B&gt;&lt;/FONT&gt;
    &lt;/TD&gt;
    &lt;TD&gt;
      &lt;FONT SIZE=3 FACE=ARIAL&gt;&lt;B&gt;PHILIPS/MEPCO&lt;/B&gt;&lt;/FONT&gt;
    &lt;/TD&gt;
    &lt;TD&gt;
      &lt;FONT SIZE=3 FACE=ARIAL&gt;&lt;B&gt;PANASONIC&lt;/B&gt;&lt;/FONT&gt;
    &lt;/TD&gt;
    &lt;TD&gt;
      &lt;FONT SIZE=3 FACE=ARIAL&gt;&lt;B&gt;TOCOS&lt;/B&gt;&lt;/FONT&gt;
    &lt;/TD&gt;
    &lt;TD&gt;
      &lt;FONT SIZE=3 FACE=ARIAL&gt;&lt;B&gt;AUX/KYOCERA&lt;/B&gt;&lt;/FONT&gt;
    &lt;/TD&gt;
  &lt;/TR&gt;
  &lt;TR&gt;
    &lt;TD BGCOLOR="#cccccc" ALIGN=CENTER&gt;&lt;FONT FACE=ARIAL SIZE=3&gt;
      3224G&lt;BR&gt;
      3224J&lt;BR&gt;
      3224W&lt;BR&gt;
      3269P&lt;BR&gt;
      3269W&lt;BR&gt;
      3269X&lt;BR&gt;&lt;/FONT&gt;
    &lt;/TD&gt;
    &lt;TD BGCOLOR="#cccccc" ALIGN=CENTER&gt;&lt;FONT FACE=ARIAL SIZE=3&gt;
      44G&lt;BR&gt;
      44J&lt;BR&gt;
      44W&lt;BR&gt;
      84P&lt;BR&gt;
      84W&lt;BR&gt;
      84X&lt;BR&gt;&lt;/FONT&gt;
    &lt;/TD&gt;
    &lt;TD BGCOLOR="#cccccc" ALIGN=CENTER&gt;&lt;FONT FACE=ARIAL SIZE=3&gt;
      -&lt;BR&gt;
      -&lt;BR&gt;
      -&lt;BR&gt;
      ST63Z&lt;BR&gt;
      ST63Y&lt;BR&gt;
      -&lt;BR&gt;&lt;/FONT&gt;
    &lt;/TD&gt;
    &lt;TD BGCOLOR="#cccccc" ALIGN=CENTER&gt;&lt;FONT FACE=ARIAL SIZE=3&gt;
      -&lt;BR&gt;
      -&lt;BR&gt;
      -&lt;BR&gt;
      ST5P&lt;BR&gt;
      ST5W&lt;BR&gt;
      ST5X&lt;BR&gt;&lt;/FONT&gt;
    &lt;/TD&gt;
    &lt;TD BGCOLOR="#cccccc" ALIGN=CENTER&gt;&lt;FONT FACE=ARIAL SIZE=3&gt;
      -&lt;BR&gt;
      -&lt;BR&gt;
      -&lt;BR&gt;
      -&lt;BR&gt;
      -&lt;BR&gt;
      -&lt;BR&gt;&lt;/FONT&gt;
    &lt;/TD&gt;
    &lt;TD BGCOLOR="#cccccc" ALIGN=CENTER&gt;&lt;FONT FACE=ARIAL SIZE=3&gt;
      -&lt;BR&gt;
      -&lt;BR&gt;
      -&lt;BR&gt;
      -&lt;BR&gt;
      -&lt;BR&gt;
      -&lt;BR&gt;&lt;/FONT&gt;
    &lt;/TD&gt;
    &lt;TD BGCOLOR="#cccccc" ALIGN=CENTER&gt;&lt;FONT FACE=ARIAL SIZE=3&gt;
      -&lt;BR&gt;
      -&lt;BR&gt;
      -&lt;BR&gt;
      -&lt;BR&gt;
      -&lt;BR&gt;
      -&lt;BR&gt;&lt;/FONT&gt;
    &lt;/TD&gt;
  &lt;/TR&gt;
  &lt;TR&gt;
    &lt;TD COLSPAN=7&gt;&amp;nbsp;
    &lt;/TD&gt;
  &lt;/TR&gt;
  &lt;TR&gt;
    &lt;TD COLSPAN=7&gt;
      &lt;FONT SIZE=4 FACE=ARIAL&gt;&lt;B&gt;SINGLE TURN&lt;/B&gt;&lt;/FONT&gt;
    &lt;/TD&gt;
  &lt;/TR&gt;
  &lt;TR&gt;
    &lt;TD&gt;
      &lt;FONT SIZE=3 FACE=ARIAL&gt;&lt;B&gt;BOURNS&lt;/B&gt;&lt;/FONT&gt;
    &lt;/TD&gt;
    &lt;TD&gt;
      &lt;FONT SIZE=3 FACE=ARIAL&gt;&lt;B&gt;BI&amp;nbsp;TECH&lt;/B&gt;&lt;/FONT&gt;
    &lt;/TD&gt;
    &lt;TD&gt;
      &lt;FONT SIZE=3 FACE=ARIAL&gt;&lt;B&gt;DALE-VISHAY&lt;/B&gt;&lt;/FONT&gt;
    &lt;/TD&gt;
    &lt;TD&gt;
      &lt;FONT SIZE=3 FACE=ARIAL&gt;&lt;B&gt;PHILIPS/MEPCO&lt;/B&gt;&lt;/FONT&gt;
    &lt;/TD&gt;
    &lt;TD&gt;
      &lt;FONT SIZE=3 FACE=ARIAL&gt;&lt;B&gt;PANASONIC&lt;/B&gt;&lt;/FONT&gt;
    &lt;/TD&gt;
    &lt;TD&gt;
      &lt;FONT SIZE=3 FACE=ARIAL&gt;&lt;B&gt;TOCOS&lt;/B&gt;&lt;/FONT&gt;
    &lt;/TD&gt;
    &lt;TD&gt;
      &lt;FONT SIZE=3 FACE=ARIAL&gt;&lt;B&gt;AUX/KYOCERA&lt;/B&gt;&lt;/FONT&gt;
    &lt;/TD&gt;
  &lt;/TR&gt;
  &lt;TR&gt;
    &lt;TD BGCOLOR="#cccccc" ALIGN=CENTER&gt;&lt;FONT FACE=ARIAL SIZE=3&gt;
      3314G&lt;BR&gt;
      3314J&lt;BR&gt;
      3364A/B&lt;BR&gt;
      3364C/D&lt;BR&gt;
      3364W/X&lt;BR&gt;
      3313G&lt;BR&gt;
      3313J&lt;BR&gt;&lt;/FONT&gt;
    &lt;/TD&gt;
    &lt;TD BGCOLOR="#cccccc" ALIGN=CENTER&gt;&lt;FONT FACE=ARIAL SIZE=3&gt;
      23B&lt;BR&gt;
      23A&lt;BR&gt;
      21X&lt;BR&gt;
      21W&lt;BR&gt;
      -&lt;BR&gt;
      22B&lt;BR&gt;
      22A&lt;BR&gt;&lt;/FONT&gt;
    &lt;/TD&gt;
    &lt;TD BGCOLOR="#cccccc" ALIGN=CENTER&gt;&lt;FONT FACE=ARIAL SIZE=3&gt;
      ST5YL/ST53YL&lt;BR&gt;
      ST5YJ/5T53YJ&lt;BR&gt;
      ST-23A&lt;BR&gt;
      ST-22B&lt;BR&gt;
      ST-22&lt;BR&gt;
      -&lt;BR&gt;
      -&lt;BR&gt;&lt;/FONT&gt;
    &lt;/TD&gt;
    &lt;TD BGCOLOR="#cccccc" ALIGN=CENTER&gt;&lt;FONT FACE=ARIAL SIZE=3&gt;
      ST-4B&lt;BR&gt;
      ST-4A&lt;BR&gt;
      -&lt;BR&gt;
      -&lt;BR&gt;
      -&lt;BR&gt;
      ST-3B&lt;BR&gt;
      ST-3A&lt;BR&gt;&lt;/FONT&gt;
    &lt;/TD&gt;
    &lt;TD BGCOLOR="#cccccc" ALIGN=CENTER&gt;&lt;FONT FACE=ARIAL SIZE=3&gt;
      -&lt;BR&gt;
      EVM-6YS&lt;BR&gt;
      EVM-1E&lt;BR&gt;
      EVM-1G&lt;BR&gt;
      EVM-1D&lt;BR&gt;
      -&lt;BR&gt;
      -&lt;BR&gt;&lt;/FONT&gt;
    &lt;/TD&gt;
    &lt;TD BGCOLOR="#cccccc" ALIGN=CENTER&gt;&lt;FONT FACE=ARIAL SIZE=3&gt;
      G4B&lt;BR&gt;
      G4A&lt;BR&gt;
      TR04-3S1&lt;BR&gt;
      TRG04-2S1&lt;BR&gt;
      -&lt;BR&gt;
      -&lt;BR&gt;
      -&lt;BR&gt;&lt;/FONT&gt;
    &lt;/TD&gt;
    &lt;TD BGCOLOR="#cccccc" ALIGN=CENTER&gt;&lt;FONT FACE=ARIAL SIZE=3&gt;
      -&lt;BR&gt;
      -&lt;BR&gt;
      DVR-43A&lt;BR&gt;
      CVR-42C&lt;BR&gt;
      CVR-42A/C&lt;BR&gt;
      -&lt;BR&gt;
      -&lt;BR&gt;&lt;/FONT&gt;
    &lt;/TD&gt;
  &lt;/TR&gt;
&lt;/TABLE&gt;
&lt;P&gt;
&lt;FONT SIZE=4 FACE=ARIAL&gt;&lt;B&gt;ALT =&amp;nbsp;ALTERNATE&lt;/B&gt;&lt;/FONT&gt;
&lt;P&gt;

&amp;nbsp;
&lt;P&gt;
&lt;/td&gt;
&lt;/tr&gt;
&lt;/table&gt;</description>
<packages>
<package name="C1210K">
<description>&lt;b&gt;Ceramic Chip Capacitor KEMET 1210 reflow solder&lt;/b&gt;&lt;p&gt;
Metric Code Size 3225</description>
<wire x1="-1.525" y1="1.175" x2="1.525" y2="1.175" width="0.1016" layer="51"/>
<wire x1="1.525" y1="-1.175" x2="-1.525" y2="-1.175" width="0.1016" layer="51"/>
<smd name="1" x="-1.5" y="0" dx="1.5" dy="2.9" layer="1"/>
<smd name="2" x="1.5" y="0" dx="1.5" dy="2.9" layer="1"/>
<text x="-1.6" y="1.55" size="1.016" layer="25">&gt;NAME</text>
<text x="-1.6" y="-2.575" size="1.016" layer="27">&gt;VALUE</text>
<rectangle x1="-1.6" y1="-1.25" x2="-1.1" y2="1.25" layer="51"/>
<rectangle x1="1.1" y1="-1.25" x2="1.6" y2="1.25" layer="51"/>
</package>
</packages>
</library>
</libraries>
<attributes>
</attributes>
<variantdefs>
</variantdefs>
<classes>
<class number="0" name="default" width="0" drill="0">
</class>
<class number="1" name="SDRAM-CTRL" width="0" drill="0">
</class>
</classes>
<designrules name="Eagle-DRU - 1203 - LeitOn - 01 and 02 layers">
<description language="de">&lt;b&gt;LeitOn Design-Regeln&lt;/b&gt;
&lt;p&gt;
Diese DRU-Datei enthält viele erforderliche Design Einstellungen, damit Ihre Standardleiterplatte bei uns fehlerfrei und ohne Zusatzkosten produziert werden kann. Die Optionen Shapes und Misc sind nicht relevant und der minimale und maximale Wert für Roundness Shapes kann frei gewählt werden. Nach unten abweichende Design-Regeln sind möglich, können jedoch Aufpreise erfordern. Hinweis: Freistellungen und Streichstärken von Bestückungsdruck werden nicht im Eagle-DRC geprüft!
&lt;br&gt;&lt;br&gt;
&lt;b&gt;Übersicht der LeitOn Regeln:&lt;/b&lt;&lt;br&gt;&lt;br&gt;
&lt;u&gt;allgemein:&lt;/u&gt;&lt;br&gt;
minimale Leiterbahnbreite/-abstand: &lt;b&gt;0.15 mm&lt;/b&gt;&lt;br&gt;
(Strichstärke für Kupferschrift sollte mind. 0.2 mm sein um gut lesbar zu bleiben)&lt;br&gt;
kleinster Bohrdurchmesser: &lt;b&gt;0.3 mm&lt;/b&gt;&lt;br&gt;&lt;br&gt;
&lt;u&gt;Kupferrestringe um DK-Bohrungen:&lt;/u&gt;&lt;br&gt;
Aussenlagen: &lt;b&gt;0.15 mm&lt;/b&gt;&lt;br&gt;
Innenlagen:  &lt;b&gt;0.2 mm&lt;/b&gt;&lt;br&gt;
&lt;br&gt;
&lt;u&gt;Masselagen-Freimachungen:&lt;/u&gt;&lt;br&gt;
Innenlagen: &lt;b&gt;0.35 mm&lt;/b&gt;&lt;br&gt;
&lt;br&gt;
&lt;u&gt;Bestückungsdruck (wird nicht im DRU überprüft!)&lt;/u&gt;&lt;br&gt;
minimale Strichstärke: &lt;b&gt;0.2 mm&lt;/b&gt;&lt;br&gt;&lt;br&gt;
&lt;b&gt;&lt;u&gt;&lt;font color= &quot;blue&quot;&gt;Wichtig:&lt;/font&gt;&lt;/b&gt;&lt;/u&gt; Verwenden Sie als Strichstärke für Masseflächen keine Strichstärken kleiner 0.1mm. Es entstehen sonst extrem große Datenmengen, weil Eagle die Massefläche stets mit Polygonen der gleichen Strichstärke füllt.

&lt;/p&gt;</description>
<param name="layerSetup" value="(1*16)"/>
<param name="mtCopper" value="0.035mm 0.035mm 0.035mm 0.035mm 0.035mm 0.035mm 0.035mm 0.035mm 0.035mm 0.035mm 0.035mm 0.035mm 0.035mm 0.035mm 0.035mm 0.035mm"/>
<param name="mtIsolate" value="1.5mm 0.71mm 0.36mm 0.15mm 0.2mm 0.15mm 0.2mm 0.15mm 0.2mm 0.15mm 0.2mm 0.15mm 0.2mm 0.15mm 0.36mm"/>
<param name="mdWireWire" value="6mil"/>
<param name="mdWirePad" value="6mil"/>
<param name="mdWireVia" value="6mil"/>
<param name="mdPadPad" value="6mil"/>
<param name="mdPadVia" value="6mil"/>
<param name="mdViaVia" value="6mil"/>
<param name="mdSmdPad" value="6mil"/>
<param name="mdSmdVia" value="6mil"/>
<param name="mdSmdSmd" value="6mil"/>
<param name="mdViaViaSameLayer" value="8mil"/>
<param name="mnLayersViaInSmd" value="2"/>
<param name="mdCopperDimension" value="20mil"/>
<param name="mdDrill" value="10mil"/>
<param name="mdSmdStop" value="0mil"/>
<param name="msWidth" value="6mil"/>
<param name="msDrill" value="0.3mm"/>
<param name="msMicroVia" value="999mil"/>
<param name="msBlindViaRatio" value="0.5"/>
<param name="rvPadTop" value="0"/>
<param name="rvPadInner" value="0"/>
<param name="rvPadBottom" value="0"/>
<param name="rvViaOuter" value="0"/>
<param name="rvViaInner" value="0"/>
<param name="rvMicroViaOuter" value="0"/>
<param name="rvMicroViaInner" value="0"/>
<param name="rlMinPadTop" value="8mil"/>
<param name="rlMaxPadTop" value="100mil"/>
<param name="rlMinPadInner" value="8mil"/>
<param name="rlMaxPadInner" value="100mil"/>
<param name="rlMinPadBottom" value="8mil"/>
<param name="rlMaxPadBottom" value="100mil"/>
<param name="rlMinViaOuter" value="6mil"/>
<param name="rlMaxViaOuter" value="100mil"/>
<param name="rlMinViaInner" value="8mil"/>
<param name="rlMaxViaInner" value="100mil"/>
<param name="rlMinMicroViaOuter" value="99mil"/>
<param name="rlMaxMicroViaOuter" value="999mil"/>
<param name="rlMinMicroViaInner" value="99mil"/>
<param name="rlMaxMicroViaInner" value="999mil"/>
<param name="psTop" value="-1"/>
<param name="psBottom" value="-1"/>
<param name="psFirst" value="0"/>
<param name="psElongationLong" value="100"/>
<param name="psElongationOffset" value="100"/>
<param name="mvStopFrame" value="0"/>
<param name="mvCreamFrame" value="0"/>
<param name="mlMinStopFrame" value="3mil"/>
<param name="mlMaxStopFrame" value="3mil"/>
<param name="mlMinCreamFrame" value="0mil"/>
<param name="mlMaxCreamFrame" value="0mil"/>
<param name="mlViaStopLimit" value="0mil"/>
<param name="srRoundness" value="0"/>
<param name="srMinRoundness" value="0mil"/>
<param name="srMaxRoundness" value="0mil"/>
<param name="slThermalIsolate" value="8mil"/>
<param name="slThermalsForVias" value="0"/>
<param name="dpMaxLengthDifference" value="10mm"/>
<param name="dpGapFactor" value="2.5"/>
<param name="checkGrid" value="0"/>
<param name="checkAngle" value="0"/>
<param name="checkFont" value="1"/>
<param name="checkRestrict" value="1"/>
<param name="useDiameter" value="13"/>
<param name="maxErrors" value="50"/>
</designrules>
<autorouter>
<pass name="Default">
<param name="RoutingGrid" value="50mil"/>
<param name="tpViaShape" value="round"/>
<param name="PrefDir.1" value="|"/>
<param name="PrefDir.2" value="0"/>
<param name="PrefDir.3" value="0"/>
<param name="PrefDir.4" value="0"/>
<param name="PrefDir.5" value="0"/>
<param name="PrefDir.6" value="0"/>
<param name="PrefDir.7" value="0"/>
<param name="PrefDir.8" value="0"/>
<param name="PrefDir.9" value="0"/>
<param name="PrefDir.10" value="0"/>
<param name="PrefDir.11" value="0"/>
<param name="PrefDir.12" value="0"/>
<param name="PrefDir.13" value="0"/>
<param name="PrefDir.14" value="0"/>
<param name="PrefDir.15" value="0"/>
<param name="PrefDir.16" value="-"/>
<param name="cfVia" value="8"/>
<param name="cfNonPref" value="5"/>
<param name="cfChangeDir" value="2"/>
<param name="cfOrthStep" value="2"/>
<param name="cfDiagStep" value="3"/>
<param name="cfExtdStep" value="0"/>
<param name="cfBonusStep" value="1"/>
<param name="cfMalusStep" value="1"/>
<param name="cfPadImpact" value="4"/>
<param name="cfSmdImpact" value="4"/>
<param name="cfBusImpact" value="0"/>
<param name="cfHugging" value="3"/>
<param name="cfAvoid" value="4"/>
<param name="cfPolygon" value="10"/>
<param name="cfBase.1" value="0"/>
<param name="cfBase.2" value="1"/>
<param name="cfBase.3" value="1"/>
<param name="cfBase.4" value="1"/>
<param name="cfBase.5" value="1"/>
<param name="cfBase.6" value="1"/>
<param name="cfBase.7" value="1"/>
<param name="cfBase.8" value="1"/>
<param name="cfBase.9" value="1"/>
<param name="cfBase.10" value="1"/>
<param name="cfBase.11" value="1"/>
<param name="cfBase.12" value="1"/>
<param name="cfBase.13" value="1"/>
<param name="cfBase.14" value="1"/>
<param name="cfBase.15" value="1"/>
<param name="cfBase.16" value="0"/>
<param name="mnVias" value="20"/>
<param name="mnSegments" value="9999"/>
<param name="mnExtdSteps" value="9999"/>
<param name="mnRipupLevel" value="10"/>
<param name="mnRipupSteps" value="100"/>
<param name="mnRipupTotal" value="100"/>
</pass>
<pass name="Follow-me" refer="Default" active="yes">
</pass>
<pass name="Busses" refer="Default" active="yes">
<param name="cfNonPref" value="4"/>
<param name="cfBusImpact" value="4"/>
<param name="cfHugging" value="0"/>
<param name="mnVias" value="0"/>
</pass>
<pass name="Route" refer="Default" active="yes">
</pass>
<pass name="Optimize1" refer="Default" active="yes">
<param name="cfVia" value="99"/>
<param name="cfExtdStep" value="10"/>
<param name="cfHugging" value="1"/>
<param name="mnExtdSteps" value="1"/>
<param name="mnRipupLevel" value="0"/>
</pass>
<pass name="Optimize2" refer="Optimize1" active="yes">
<param name="cfNonPref" value="0"/>
<param name="cfChangeDir" value="6"/>
<param name="cfExtdStep" value="0"/>
<param name="cfBonusStep" value="2"/>
<param name="cfMalusStep" value="2"/>
<param name="cfPadImpact" value="2"/>
<param name="cfSmdImpact" value="2"/>
<param name="cfHugging" value="0"/>
</pass>
<pass name="Optimize3" refer="Optimize2" active="yes">
<param name="cfChangeDir" value="8"/>
<param name="cfPadImpact" value="0"/>
<param name="cfSmdImpact" value="0"/>
</pass>
<pass name="Optimize4" refer="Optimize3" active="yes">
<param name="cfChangeDir" value="25"/>
</pass>
</autorouter>
<elements>
<element name="SV2" library="con-harting-ml" package="ML10L" value="" x="12.7" y="25.4">
<attribute name="OC_NEWARK" value="unknown" x="36.83" y="-10.16" size="1.778" layer="27" display="off"/>
<attribute name="MPN" value="" x="36.83" y="-10.16" size="1.778" layer="27" display="off"/>
<attribute name="MF" value="" x="36.83" y="-10.16" size="1.778" layer="27" display="off"/>
<attribute name="OC_FARNELL" value="unknown" x="36.83" y="-10.16" size="1.778" layer="27" display="off"/>
</element>
<element name="SV1" library="con-harting-ml" package="ML10L" value="" x="12.7" y="5.08" rot="R180">
<attribute name="OC_NEWARK" value="unknown" x="-11.43" y="27.94" size="1.778" layer="27" rot="R180" display="off"/>
<attribute name="MPN" value="" x="-11.43" y="27.94" size="1.778" layer="27" rot="R180" display="off"/>
<attribute name="MF" value="" x="-11.43" y="27.94" size="1.778" layer="27" rot="R180" display="off"/>
<attribute name="OC_FARNELL" value="unknown" x="-11.43" y="27.94" size="1.778" layer="27" rot="R180" display="off"/>
</element>
<element name="J1" library="con-molex" package="7395-04" value="22-05-7048-04" x="21.59" y="16.51" rot="R90">
<attribute name="OC_NEWARK" value="unknown" x="35.56" y="36.83" size="1.778" layer="27" rot="R90" display="off"/>
<attribute name="MPN" value="" x="35.56" y="36.83" size="1.778" layer="27" rot="R90" display="off"/>
<attribute name="MF" value="" x="35.56" y="36.83" size="1.778" layer="27" rot="R90" display="off"/>
<attribute name="OC_FARNELL" value="unknown" x="35.56" y="36.83" size="1.778" layer="27" rot="R90" display="off"/>
</element>
<element name="J2" library="con-molex" package="7395-04" value="22-05-7048-04" x="3.81" y="16.51" rot="R270">
<attribute name="OC_NEWARK" value="unknown" x="-10.16" y="-16.51" size="1.778" layer="27" rot="R270" display="off"/>
<attribute name="MPN" value="" x="-10.16" y="-16.51" size="1.778" layer="27" rot="R270" display="off"/>
<attribute name="MF" value="" x="-10.16" y="-16.51" size="1.778" layer="27" rot="R270" display="off"/>
<attribute name="OC_FARNELL" value="unknown" x="-10.16" y="-16.51" size="1.778" layer="27" rot="R270" display="off"/>
</element>
<element name="C1" library="rcl" package="C1210K" value="min 22uF/10V" x="3.81" y="7.62" rot="R270"/>
</elements>
<signals>
<signal name="GND" class="1">
<contactref element="SV2" pad="10"/>
<contactref element="SV2" pad="2"/>
<contactref element="SV1" pad="10"/>
<contactref element="SV1" pad="2"/>
<contactref element="J1" pad="2"/>
<contactref element="J2" pad="2"/>
<contactref element="J1" pad="3"/>
<contactref element="J2" pad="3"/>
<wire x1="3.81" y1="15.24" x2="21.59" y2="15.24" width="0.8128" layer="16"/>
<wire x1="3.81" y1="17.78" x2="21.59" y2="17.78" width="0.8128" layer="16"/>
<wire x1="17.78" y1="3.81" x2="16.51" y2="5.08" width="0.8128" layer="16"/>
<wire x1="16.51" y1="5.08" x2="8.89" y2="5.08" width="0.8128" layer="16"/>
<wire x1="8.89" y1="5.08" x2="7.62" y2="3.81" width="0.8128" layer="16"/>
<wire x1="7.62" y1="26.67" x2="8.89" y2="25.4" width="0.8128" layer="16"/>
<wire x1="8.89" y1="25.4" x2="16.51" y2="25.4" width="0.8128" layer="16"/>
<wire x1="16.51" y1="25.4" x2="17.78" y2="26.67" width="0.8128" layer="16"/>
<wire x1="21.59" y1="17.78" x2="20.32" y2="17.78" width="0.8128" layer="1"/>
<wire x1="20.32" y1="17.78" x2="19.05" y2="19.05" width="0.8128" layer="1"/>
<wire x1="19.05" y1="19.05" x2="19.05" y2="22.86" width="0.8128" layer="1"/>
<wire x1="19.05" y1="22.86" x2="20.32" y2="24.13" width="0.8128" layer="1"/>
<wire x1="20.32" y1="24.13" x2="20.32" y2="25.4" width="0.8128" layer="1"/>
<wire x1="20.32" y1="25.4" x2="19.05" y2="26.67" width="0.8128" layer="1"/>
<wire x1="19.05" y1="26.67" x2="17.78" y2="26.67" width="0.8128" layer="1"/>
<wire x1="21.59" y1="15.24" x2="20.32" y2="15.24" width="0.8128" layer="1"/>
<wire x1="20.32" y1="15.24" x2="19.05" y2="13.97" width="0.8128" layer="1"/>
<wire x1="19.05" y1="13.97" x2="19.05" y2="7.62" width="0.8128" layer="1"/>
<wire x1="19.05" y1="7.62" x2="20.32" y2="6.35" width="0.8128" layer="1"/>
<wire x1="20.32" y1="6.35" x2="20.32" y2="5.08" width="0.8128" layer="1"/>
<wire x1="20.32" y1="5.08" x2="19.05" y2="3.81" width="0.8128" layer="1"/>
<wire x1="19.05" y1="3.81" x2="17.78" y2="3.81" width="0.8128" layer="1"/>
<polygon width="0.8128" layer="1">
<vertex x="0" y="0"/>
<vertex x="25.4" y="0"/>
<vertex x="25.4" y="30.48"/>
<vertex x="0" y="30.48"/>
</polygon>
<polygon width="0.8128" layer="16">
<vertex x="0" y="0"/>
<vertex x="25.4" y="0"/>
<vertex x="25.4" y="30.48"/>
<vertex x="0" y="30.48"/>
</polygon>
<contactref element="C1" pad="2"/>
<wire x1="3.81" y1="6.12" x2="5.31" y2="6.12" width="0.8128" layer="1"/>
<wire x1="5.31" y1="6.12" x2="7.62" y2="3.81" width="0.8128" layer="1"/>
</signal>
<signal name="VCC">
<contactref element="SV2" pad="4"/>
<contactref element="SV1" pad="4"/>
<contactref element="J1" pad="1"/>
<contactref element="J2" pad="1"/>
<wire x1="3.81" y1="12.7" x2="4.55395" y2="12.7" width="0.8128" layer="1"/>
<wire x1="4.55395" y1="12.7" x2="6.35" y2="14.49605" width="0.8128" layer="1"/>
<wire x1="6.35" y1="14.49605" x2="6.35" y2="19.05" width="0.8128" layer="1"/>
<via x="6.35" y="19.05" extent="1-16" drill="0.7"/>
<wire x1="6.35" y1="19.05" x2="8.89" y2="19.05" width="0.8128" layer="16"/>
<wire x1="8.89" y1="19.05" x2="10.16" y2="20.32" width="0.8128" layer="16"/>
<wire x1="10.16" y1="20.32" x2="11.43" y2="20.32" width="0.8128" layer="16"/>
<wire x1="11.43" y1="20.32" x2="21.59" y2="20.32" width="0.8128" layer="16"/>
<wire x1="15.24" y1="3.81" x2="13.97" y2="5.08" width="0.8128" layer="1"/>
<wire x1="10.16" y1="26.67" x2="11.43" y2="25.4" width="0.8128" layer="1"/>
<wire x1="11.43" y1="25.4" x2="11.43" y2="20.32" width="0.8128" layer="1"/>
<via x="11.43" y="20.32" extent="1-16" drill="0.7"/>
<wire x1="13.97" y1="5.08" x2="12.065" y2="5.08" width="0.8128" layer="1"/>
<wire x1="12.065" y1="5.08" x2="11.43" y2="5.715" width="0.8128" layer="1"/>
<wire x1="11.43" y1="5.715" x2="11.43" y2="20.32" width="0.8128" layer="1"/>
<contactref element="C1" pad="1"/>
<wire x1="3.81" y1="9.12" x2="3.81" y2="12.7" width="0.8128" layer="1"/>
</signal>
<signal name="TCK">
<contactref element="SV2" pad="1"/>
<contactref element="SV1" pad="1"/>
<wire x1="7.62" y1="24.13" x2="7.62" y2="22.86" width="0.4064" layer="16"/>
<wire x1="7.62" y1="22.86" x2="8.89" y2="21.59" width="0.4064" layer="16"/>
<wire x1="8.89" y1="21.59" x2="17.78" y2="21.59" width="0.4064" layer="16"/>
<via x="17.78" y="21.59" extent="1-16" drill="0.3"/>
<wire x1="17.78" y1="21.59" x2="17.78" y2="6.35" width="0.4064" layer="1"/>
</signal>
<signal name="TDO">
<contactref element="SV2" pad="3"/>
<contactref element="SV1" pad="3"/>
<wire x1="10.16" y1="24.13" x2="10.16" y2="7.62" width="0.4064" layer="1"/>
<via x="10.16" y="7.62" extent="1-16" drill="0.3"/>
<wire x1="10.16" y1="7.62" x2="13.97" y2="7.62" width="0.4064" layer="16"/>
<wire x1="13.97" y1="7.62" x2="15.24" y2="6.35" width="0.4064" layer="16"/>
</signal>
<signal name="TMS">
<contactref element="SV2" pad="5"/>
<contactref element="SV1" pad="5"/>
<wire x1="12.7" y1="24.13" x2="12.7" y2="6.35" width="0.4064" layer="1"/>
</signal>
<signal name="TDI">
<contactref element="SV2" pad="9"/>
<contactref element="SV1" pad="9"/>
<wire x1="17.78" y1="24.13" x2="16.51" y2="22.86" width="0.4064" layer="16"/>
<wire x1="16.51" y1="22.86" x2="8.89" y2="22.86" width="0.4064" layer="16"/>
<via x="8.89" y="22.86" extent="1-16" drill="0.3"/>
<wire x1="8.89" y1="22.86" x2="8.89" y2="7.62" width="0.4064" layer="1"/>
<wire x1="8.89" y1="7.62" x2="7.62" y2="6.35" width="0.4064" layer="1"/>
</signal>
<signal name="+12V">
<contactref element="J1" pad="4"/>
<contactref element="J2" pad="4"/>
<wire x1="3.81" y1="20.32" x2="6.721975" y2="20.32" width="0.8128" layer="1"/>
<wire x1="6.721975" y1="20.32" x2="7.62" y2="19.421975" width="0.8128" layer="1"/>
<wire x1="7.62" y1="19.421975" x2="7.62" y2="12.7" width="0.8128" layer="1"/>
<via x="7.62" y="12.7" extent="1-16" drill="0.7"/>
<wire x1="7.62" y1="12.7" x2="21.59" y2="12.7" width="0.8128" layer="16"/>
</signal>
</signals>
</board>
</drawing>
</eagle>
